<?xml version="1.0"?>
<robot name="cali">
  <link name="base_link">
    <visual>
      <geometry>
        <mesh filename="meshes/S18-R-Geometry18FrameFINAL.stl"/>
      </geometry>
    </visual>
    <collision>
      <geometry>
        <mesh filename="meshes/S18-R-Geometry18FrameFINAL.stl"/>
      </geometry>
    </collision>
  </link>
  <link name="bl_tire">
    <visual>
      <geometry>
        <mesh filename="meshes/WHEEL_ASSEMBLY.stl"/>
      </geometry>
    </visual>
    <collision>
      <geometry>
        <mesh filename="meshes/WHEEL_ASSEMBLY.stl"/>
      </geometry>
    </collision>
  </link>

  <link name="br_tire">
    <visual>
      <geometry>
        <mesh filename="meshes/WHEEL_ASSEMBLY.stl"/>
      </geometry>
    </visual>
    <collision>
      <geometry>
        <mesh filename="meshes/WHEEL_ASSEMBLY.stl"/>
      </geometry>
    </collision>
  </link>



  <link name="fl_tire_pivot" />

  <link name="fr_tire_pivot" />


  <link name="fl_tire">
    <visual>
      <geometry>
        <mesh filename="meshes/WHEEL_ASSEMBLY.stl"/>
      </geometry>
    </visual>
    <collision>
      <geometry>
        <mesh filename="meshes/WHEEL_ASSEMBLY.stl"/>
      </geometry>
    </collision>
  </link>

  <link name="fr_tire">
    <visual>
      <geometry>
        <mesh filename="meshes/WHEEL_ASSEMBLY.stl"/>
      </geometry>
    </visual>
    <collision>
      <geometry>
        <mesh filename="meshes/WHEEL_ASSEMBLY.stl"/>
      </geometry>
    </collision>
  </link>


  <joint name="bl_wheel" type="continuous">
    <limit effort="10000.0" velocity="100"/>
    <parent link="base_link"/>
    <child link="bl_tire"/>
    <axis xyz="0 0 1"/>
    <origin rpy="1.57 3.14 0" xyz="-1.132 0.628 -0.055"/>
  </joint>
  <joint name="br_wheel" type="continuous">
    <limit effort="10000.0" velocity="100"/>
    <parent link="base_link"/>
    <child link="br_tire"/>
    <axis xyz="0 0 1"/>
    <origin rpy="1.57 0 0" xyz="-1.132 -0.628 -0.055"/>
  </joint>


  <joint name="fl_car2wheeljoint" type="revolute">
    <limit effort="100" velocity="100"/>
    <axis xyz="0 1 0"/>
    <origin rpy="1.57 3.14 0" xyz="0.429 0.672 -0.069"/>
    <parent link="base_link"/>
    <child link="fl_tire_pivot"/>
  </joint>

  <joint name="fr_car2wheeljoint" type="revolute">
    <limit effort="100" velocity="100"/>
    <axis xyz="0 1 0"/>
    <origin rpy="1.57 3.14 0" xyz="0.429 -0.672 -0.069"/>
    <parent link="base_link" />
    <child link="fr_tire_pivot"/>
  </joint>

  <joint name="fl_wheel" type="continuous">
    <limit effort="0" velocity="100"/>
    <parent link="fl_tire_pivot"/>
    <child link="fl_tire"/>
    <axis xyz="0 0 1"/>
    <origin rpy="0 0 0" xyz="0 0 0"/>
    <!-- <origin rpy="1.57 3.14 0.5" xyz="0.429 0.672 -0.069"/> -->
  </joint>
  <joint name="fr_wheel" type="continuous">
    <limit effort="0" velocity="100"/>
    <origin rpy="0 0 0" xyz="0 0 0"/>
    <!-- <origin rpy="1.57 3.14 0.5" xyz="0.429 -0.672 -0.069"/> -->
    <axis xyz="0 0 1"/>
    <parent link="fr_tire_pivot"/>
    <child link="fr_tire"/>
  </joint>

</robot>